[{
    "id": 1,
    "nombre": "Dabfeed",
    "email": "info@dabfeed.com",
    "telefono": "513-372-9745"
}, {
    "id": 2,
    "nombre": "Photojam",
    "email": "sales@photojam.co.uk",
    "telefono": "543-428-8088"
}, {
    "id": 3,
    "nombre": "Rhybox",
    "email": "drigate2@rhybox.ru",
    "telefono": "390-441-8937"
}, {
    "id": 4,
    "nombre": "Devcast",
    "email": "pmanton3@devcast.com",
    "telefono": "110-854-3382"
}, {
    "id": 5,
    "nombre": "Skaboo",
    "email": "vklimentyonok4@skaboo.ca",
    "telefono": "163-700-2531"
}, {
    "id": 6,
    "nombre": "Oodoo",
    "email": "dsellors5@oodoo.net",
    "telefono": "925-227-4282"
}, {
    "id": 7,
    "nombre": "Thoughtmix",
    "email": "wcandey6@thoughtmix.com",
    "telefono": "701-804-0193"
}, {
    "id": 8,
    "nombre": "LiveZ",
    "email": "mslevin7@livez.com",
    "telefono": "196-603-0331"
}, {
    "id": 9,
    "nombre": "Muxo",
    "email": "mgavrieli8@sbwire.com",
    "telefono": "581-734-6694"
}, {
    "id": 10,
    "nombre": "Tavu",
    "email": "dhalsall9@upenn.edu",
    "telefono": "563-959-6055"
}, {
    "id": 11,
    "nombre": "Tagchat",
    "email": "szannutoa@oakley.com",
    "telefono": "932-283-2135"
}, {
    "id": 12,
    "nombre": "Quimba",
    "email": "sternentb@issuu.com",
    "telefono": "624-105-0032"
}, {
    "id": 13,
    "nombre": "Quinu",
    "email": "tbreckellc@cpanel.net",
    "telefono": "123-364-0261"
}, {
    "id": 14,
    "nombre": "Youbridge",
    "email": "bmacfarlaned@google.nl",
    "telefono": "207-565-6399"
}, {
    "id": 15,
    "nombre": "Bubblebox",
    "email": "givakine@jugem.jp",
    "telefono": "682-511-5369"
}, {
    "id": 16,
    "nombre": "Flashdog",
    "email": "jmoralesf@wisc.edu",
    "telefono": "902-124-3545"
}, {
    "id": 17,
    "nombre": "Jetpulse",
    "email": "wmedwellg@slideshare.net",
    "telefono": "440-777-6513"
}, {
    "id": 18,
    "nombre": "Yacero",
    "email": "rblackh@pinterest.com",
    "telefono": "507-676-9595"
}, {
    "id": 19,
    "nombre": "Kwinu",
    "email": "htrattoni@goo.ne.jp",
    "telefono": "403-803-0760"
}, {
    "id": 20,
    "nombre": "Yadel",
    "email": "olandaj@a8.net",
    "telefono": "494-595-1073"
}]
